{
	"info": {
		"_postman_id": "dedf2995-8085-4321-a734-9be36ad5c8af",
		"name": "dashboard",
		"schema": "https://schema.getpostman.com/json/collection/v2.1.0/collection.json"
	},
	"item": [
		{
			"name": "post lender",
			"request": {
				"method": "POST",
				"header": [],
				"body": {
					"mode": "formdata",
					"formdata": [
						{
							"key": "lender_nama",
							"value": "ardi",
							"type": "text"
						},
						{
							"key": "lender_email",
							"value": "ardi@me.mi",
							"type": "text"
						},
						{
							"key": "lender_tgl_daftar",
							"value": "2020-07-30",
							"type": "text"
						},
						{
							"key": "lender_tgl_lahir",
							"value": "1999-07-02",
							"type": "text"
						},
						{
							"key": "lender_gender",
							"value": "Male",
							"type": "text"
						},
						{
							"key": "lender_provinsi",
							"value": "Jakarta",
							"type": "text"
						},
						{
							"key": "lender_status",
							"value": "aktif",
							"type": "text"
						}
					]
				},
				"url": {
					"raw": "http://dashboardfa.mo/api/postlender",
					"protocol": "http",
					"host": [
						"dashboardfa",
						"mo"
					],
					"path": [
						"api",
						"postlender"
					]
				}
			},
			"response": []
		},
		{
			"name": "post borrower",
			"request": {
				"method": "POST",
				"header": [],
				"body": {
					"mode": "formdata",
					"formdata": [
						{
							"key": "borrower_nama",
							"value": "ardii",
							"type": "text"
						},
						{
							"key": "borrower_email",
							"value": "ardii@me.mi",
							"type": "text"
						},
						{
							"key": "borrower_tgl_daftar",
							"value": "2020-07-30",
							"type": "text"
						},
						{
							"key": "borrower_tgl_lahir",
							"value": "1999-07-02",
							"type": "text"
						},
						{
							"key": "borrower_gender",
							"value": "Male",
							"type": "text"
						},
						{
							"key": "borrower_provinsi",
							"value": "Jakarta",
							"type": "text"
						},
						{
							"key": "borrower_status",
							"value": "aktif",
							"type": "text"
						}
					]
				},
				"url": {
					"raw": "http://dashboardfa.mo/api/postborrower",
					"protocol": "http",
					"host": [
						"dashboardfa",
						"mo"
					],
					"path": [
						"api",
						"postborrower"
					]
				}
			},
			"response": []
		},
		{
			"name": "lender import",
			"request": {
				"auth": {
					"type": "basic",
					"basic": [
						{
							"key": "password",
							"value": "password",
							"type": "string"
						},
						{
							"key": "username",
							"value": "ardi.vidii@gmail.com",
							"type": "string"
						}
					]
				},
				"method": "POST",
				"header": [],
				"body": {
					"mode": "formdata",
					"formdata": [
						{
							"key": "file",
							"type": "file",
							"src": []
						}
					]
				},
				"url": {
					"raw": "http://dashboardfa.mo/api/lender/up/importfile",
					"protocol": "http",
					"host": [
						"dashboardfa",
						"mo"
					],
					"path": [
						"api",
						"lender",
						"up",
						"importfile"
					]
				}
			},
			"response": []
		},
		{
			"name": "borrower import",
			"request": {
				"method": "POST",
				"header": [],
				"body": {
					"mode": "formdata",
					"formdata": [
						{
							"key": "file",
							"type": "file",
							"src": "/C:/laragon/www/dashboardfa/postman/lender.csv"
						}
					]
				},
				"url": {
					"raw": "http://dashboardfa.mo/api/borrower/up/importfile",
					"protocol": "http",
					"host": [
						"dashboardfa",
						"mo"
					],
					"path": [
						"api",
						"borrower",
						"up",
						"importfile"
					]
				}
			},
			"response": []
		}
	],
	"protocolProfileBehavior": {}
}